…
litters_data = read_csv("/Users/qizining/Desktop/Data-Wrangling/FAS_litters.csv",
  col_types = "ccddiiii")
litters_data = janitor::clean_names(litters_data)

pups_data = read_csv("/Users/qizining/Desktop/Data-Wrangling/FAS_pups.csv",
  col_types = "ciiiii")
pups_data = janitor::clean_names(pups_data)
```

``` r
select(litters_data, group, litter_number, gd0_weight, pups_born_alive)
```

    ## # A tibble: 49 × 4
    ##   group litter_number gd0_weight pups_born_alive
    ##   <chr> <chr>              <dbl>           <int>
    ## 1 Con7  #85                 19.7               3
    ## 2 Con7  #1/2/95/2           27                 8
    ## 3 Con7  #5/5/3/83/3-3       26                 6
    ## # … with 46 more rows

``` r
select(litters_data, group:gd_of_birth)
```

    ## # A tibble: 49 × 5
    ##   group litter_number gd0_weight gd18_weight gd_of_birth
    ##   <chr> <chr>              <dbl>       <dbl>       <int>
    ## 1 Con7  #85                 19.7        34.7          20
    ## 2 Con7  #1/2/95/2           27          42            19
    ## 3 Con7  #5/5/3/83/3-3       26          41.4          19
    ## # … with 46 more rows

``` r
select(litters_data, -pups_survive)
```

    ## # A tibble: 49 × 7
    ##   group litter_number gd0_weight gd18_weight gd_of_birth pups_born_alive pups_…¹
    ##   <chr> <chr>              <dbl>       <dbl>       <int>           <int>   <int>
    ## 1 Con7  #85                 19.7        34.7          20               3       4
    ## 2 Con7  #1/2/95/2           27          42            19               8       0
    ## 3 Con7  #5/5/3/83/3-3       26          41.4          19               6       0
    ## # … with 46 more rows, and abbreviated variable name ¹​pups_dead_birth

``` r
select(litters_data, GROUP = group, LiTtEr_NuMbEr = litter_number)
```

    ## # A tibble: 49 × 2
    ##   GROUP LiTtEr_NuMbEr
    ##   <chr> <chr>        
    ## 1 Con7  #85          
    ## 2 Con7  #1/2/95/2    
    ## 3 Con7  #5/5/3/83/3-3
    ## # … with 46 more rows

``` r
rename(litters_data, GROUP = group, LiTtEr_NuMbEr = litter_number)
```

    ## # A tibble: 49 × 8
    ##   GROUP LiTtEr_NuMbEr gd0_weight gd18_weight gd_of_birth pups_…¹ pups_…² pups_…³
    ##   <chr> <chr>              <dbl>       <dbl>       <int>   <int>   <int>   <int>
    ## 1 Con7  #85                 19.7        34.7          20       3       4       3
    ## 2 Con7  #1/2/95/2           27          42            19       8       0       7
    ## 3 Con7  #5/5/3/83/3-3       26          41.4          19       6       0       5
    ## # … with 46 more rows, and abbreviated variable names ¹​pups_born_alive,
    ## #   ²​pups_dead_birth, ³​pups_survive

``` r
select(litters_data, starts_with("gd"))
```

    ## # A tibble: 49 × 3
    ##   gd0_weight gd18_weight gd_of_birth
    ##        <dbl>       <dbl>       <int>
    ## 1       19.7        34.7          20
    ## 2       27          42            19
    ## 3       26          41.4          19
    ## # … with 46 more rows

``` r
select(litters_data, ends_with("weight"))
```

    ## # A tibble: 49 × 2
    ##   gd0_weight gd18_weight
    ##        <dbl>       <dbl>
    ## 1       19.7        34.7
    ## 2       27          42  
    ## 3       26          41.4
    ## # … with 46 more rows

``` r
select(litters_data, litter_number, pups_survive, everything())
```

    ## # A tibble: 49 × 8
    ##   litter_number pups_survive group gd0_weight gd18_wei…¹ gd_of…² pups_…³ pups_…⁴
    ##   <chr>                <int> <chr>      <dbl>      <dbl>   <int>   <int>   <int>
    ## 1 #85                      3 Con7        19.7       34.7      20       3       4
    ## 2 #1/2/95/2                7 Con7        27         42        19       8       0
    ## 3 #5/5/3/83/3-3            5 Con7        26         41.4      19       6       0
    ## # … with 46 more rows, and abbreviated variable names ¹​gd18_weight,
    ## #   ²​gd_of_birth, ³​pups_born_alive, ⁴​pups_dead_birth
…
``` r
mutate(litters_data,
  wt_gain = gd18_weight - gd0_weight,
  group = str_to_lower(group)
)
```

    ## # A tibble: 49 × 9
    ##   group litter_number gd0_weight gd18_…¹ gd_of…² pups_…³ pups_…⁴ pups_…⁵ wt_gain
    ##   <chr> <chr>              <dbl>   <dbl>   <int>   <int>   <int>   <int>   <dbl>
    ## 1 con7  #85                 19.7    34.7      20       3       4       3    15  
    ## 2 con7  #1/2/95/2           27      42        19       8       0       7    15  
    ## 3 con7  #5/5/3/83/3-3       26      41.4      19       6       0       5    15.4
    ## # … with 46 more rows, and abbreviated variable names ¹​gd18_weight,
    ## #   ²​gd_of_birth, ³​pups_born_alive, ⁴​pups_dead_birth, ⁵​pups_survive
…
litters_data_raw = read_csv("/Users/qizining/Desktop/Data-Wrangling/FAS_litters.csv",
  col_types = "ccddiiii")
litters_data_clean_names = janitor::clean_names(litters_data_raw)
litters_data_selected_cols = select(litters_data_clean_names, -pups_survive)
litters_data_with_vars = 
  mutate(
    litters_data_selected_cols, 
    wt_gain = gd18_weight - gd0_weight,
    group = str_to_lower(group))
litters_data_with_vars_without_missing = 
  drop_na(litters_data_with_vars, wt_gain)
litters_data_with_vars_without_missing
```

    ## # A tibble: 31 × 8
    ##   group litter_number gd0_weight gd18_weight gd_of_birth pups_…¹ pups_…² wt_gain
    ##   <chr> <chr>              <dbl>       <dbl>       <int>   <int>   <int>   <dbl>
    ## 1 con7  #85                 19.7        34.7          20       3       4    15  
    ## 2 con7  #1/2/95/2           27          42            19       8       0    15  
    ## 3 con7  #5/5/3/83/3-3       26          41.4          19       6       0    15.4
    ## # … with 28 more rows, and abbreviated variable names ¹​pups_born_alive,
    ## #   ²​pups_dead_birth
…
litters_data_clean
```

    ## # A tibble: 31 × 8
    ##   group litter_number gd0_weight gd18_weight gd_of_birth pups_…¹ pups_…² wt_gain
    ##   <chr> <chr>              <dbl>       <dbl>       <int>   <int>   <int>   <dbl>
    ## 1 con7  #85                 19.7        34.7          20       3       4    15  
    ## 2 con7  #1/2/95/2           27          42            19       8       0    15  
    ## 3 con7  #5/5/3/83/3-3       26          41.4          19       6       0    15.4
    ## # … with 28 more rows, and abbreviated variable names ¹​pups_born_alive,
    ## #   ²​pups_dead_birth

``` r
litters_data = 
  read_csv("/Users/qizining/Desktop/Data-Wrangling/FAS_litters.csv", col_types = "ccddiiii") %>%
  janitor::clean_names() %>%
  select(-pups_survive) %>%
  mutate(
    wt_gain = gd18_weight - gd0_weight,
    group = str_to_lower(group)) %>% 
  drop_na(wt_gain)

litters_data
```

    ## # A tibble: 31 × 8
    ##   group litter_number gd0_weight gd18_weight gd_of_birth pups_…¹ pups_…² wt_gain
    ##   <chr> <chr>              <dbl>       <dbl>       <int>   <int>   <int>   <dbl>
    ## 1 con7  #85                 19.7        34.7          20       3       4    15  
    ## 2 con7  #1/2/95/2           27          42            19       8       0    15  
    ## 3 con7  #5/5/3/83/3-3       26          41.4          19       6       0    15.4
    ## # … with 28 more rows, and abbreviated variable names ¹​pups_born_alive,
    ## #   ²​pups_dead_birth
